<?xml version="1.0" encoding="utf-8"?>
<!-- Generator: Adobe Illustrator 18.1.1, SVG Export Plug-In . SVG Version: 6.00 Build 0)  -->
<!DOCTYPE svg PUBLIC "-//W3C//DTD SVG 1.1//EN" "http://www.w3.org/Graphics/SVG/1.1/DTD/svg11.dtd">
<svg version="1.1" id="Layer_1" xmlns="http://www.w3.org/2000/svg" xmlns:xlink="http://www.w3.org/1999/xlink" x="0px" y="0px"
	 viewBox="0 0 26 26" enable-background="new 0 0 26 26" xml:space="preserve">
<g>
	<path fill="#FFFFFF" d="M25.5,3.3c0-1.5-1.2-2.7-2.7-2.7c-1.5,0-2.7,1.2-2.7,2.7c0,1.3,0.9,2.4,2.2,2.6v17.4h1.1V5.9
		C24.6,5.7,25.5,4.6,25.5,3.3z M22.8,4.9c-0.9,0-1.6-0.7-1.6-1.6c0-0.9,0.7-1.6,1.6-1.6c0.9,0,1.6,0.7,1.6,1.6
		C24.4,4.2,23.7,4.9,22.8,4.9z"/>
	<path fill="#FFFFFF" d="M25.5,3.3H26C26,1.5,24.6,0,22.8,0c-1.8,0-3.2,1.5-3.2,3.2c0,1.6,1.1,2.9,2.6,3.2l0.1-0.5h-0.5v17.9h2.2
		V5.9h-0.5l0.1,0.5C24.9,6.2,26,4.8,26,3.3H25.5h-0.5c0,1-0.7,1.9-1.7,2.1l-0.4,0.1v17.3h0V5.5l-0.4-0.1c-1-0.2-1.7-1.1-1.7-2.1
		c0-1.2,1-2.2,2.2-2.2c1.2,0,2.2,1,2.2,2.2H25.5z M22.8,4.9V4.4c-0.6,0-1.1-0.5-1.1-1.1c0-0.6,0.5-1.1,1.1-1.1
		c0.6,0,1.1,0.5,1.1,1.1c0,0.6-0.5,1.1-1.1,1.1V4.9v0.5c1.2,0,2.2-1,2.2-2.2c0-1.2-1-2.2-2.2-2.2c-1.2,0-2.2,1-2.2,2.2
		c0,1.2,1,2.2,2.2,2.2V4.9z"/>
	<path fill="#FFFFFF" d="M3.8,20.1V2.7H2.8v17.4c-1.2,0.3-2.2,1.3-2.2,2.7c0,1.5,1.2,2.7,2.7,2.7c1.5,0,2.7-1.2,2.7-2.7
		C6,21.4,5.1,20.4,3.8,20.1z M3.3,24.4c-0.9,0-1.6-0.7-1.6-1.6c0-0.9,0.7-1.6,1.6-1.6c0.9,0,1.6,0.7,1.6,1.6
		C4.9,23.6,4.2,24.4,3.3,24.4z"/>
	<path fill="#FFFFFF" d="M3.8,20.1h0.5V2.2H2.2v17.9h0.5l-0.1-0.5c-1.5,0.3-2.6,1.6-2.6,3.2c0,1.8,1.5,3.2,3.2,3.2
		c1.8,0,3.2-1.5,3.2-3.2c0-1.6-1.1-2.9-2.6-3.2L3.8,20.1h0.5H3.8l-0.1,0.5c1,0.2,1.7,1.1,1.7,2.1c0,1.2-1,2.2-2.2,2.2
		c-1.2,0-2.2-1-2.2-2.2c0-1,0.7-1.9,1.7-2.1l0.4-0.1V3.3l0,17.3l0.4,0.1L3.8,20.1z M3.3,24.4v-0.5c-0.6,0-1.1-0.5-1.1-1.1
		c0-0.6,0.5-1.1,1.1-1.1c0.6,0,1.1,0.5,1.1,1.1c0,0.6-0.5,1.1-1.1,1.1V24.4v0.5c1.2,0,2.2-1,2.2-2.2c0-1.2-1-2.2-2.2-2.2
		c-1.2,0-2.2,1-2.2,2.2c0,1.2,1,2.2,2.2,2.2V24.4z"/>
	<path fill="#FFFFFF" d="M13.6,10.4V2.7h-1.1v7.7c-1.2,0.3-2.2,1.3-2.2,2.6s0.9,2.4,2.2,2.6v7.6h1.1v-7.6c1.2-0.3,2.2-1.3,2.2-2.6
		S14.8,10.7,13.6,10.4z M13,14.7c-0.9,0-1.6-0.7-1.6-1.6c0-0.9,0.7-1.6,1.6-1.6c0.9,0,1.6,0.7,1.6,1.6C14.7,14,13.9,14.7,13,14.7z"
		/>
	<path fill="#FFFFFF" d="M13.6,10.4h0.5V2.2H12v8.2h0.5l-0.1-0.5c-1.5,0.3-2.6,1.6-2.6,3.2c0,1.6,1.1,2.9,2.6,3.2l0.1-0.5H12v8.1
		h2.2v-8.1h-0.5l0.1,0.5c1.5-0.3,2.6-1.6,2.6-3.2c0-1.6-1.1-2.9-2.6-3.2L13.6,10.4h0.5H13.6l-0.1,0.5c1,0.2,1.7,1.1,1.7,2.1
		c0,1-0.7,1.9-1.7,2.1L13,15.3v7.5h0l0-7.5l-0.4-0.1c-1-0.2-1.7-1.1-1.7-2.1c0-1,0.7-1.9,1.7-2.1l0.4-0.1V3.3h0v7.6l0.4,0.1
		L13.6,10.4z M13,14.7v-0.5c-0.6,0-1.1-0.5-1.1-1.1c0-0.6,0.5-1.1,1.1-1.1c0.6,0,1.1,0.5,1.1,1.1c0,0.6-0.5,1.1-1.1,1.1V14.7v0.5
		c1.2,0,2.2-1,2.2-2.2c0-1.2-1-2.2-2.2-2.2c-1.2,0-2.2,1-2.2,2.2c0,1.2,1,2.2,2.2,2.2V14.7z"/>
</g>
</svg>
