<?xml version="1.0" encoding="utf-8"?>
<!-- Generator: Adobe Illustrator 18.1.1, SVG Export Plug-In . SVG Version: 6.00 Build 0)  -->
<!DOCTYPE svg PUBLIC "-//W3C//DTD SVG 1.1//EN" "http://www.w3.org/Graphics/SVG/1.1/DTD/svg11.dtd">
<svg version="1.1" id="Layer_1" xmlns="http://www.w3.org/2000/svg" xmlns:xlink="http://www.w3.org/1999/xlink" x="0px" y="0px"
	 viewBox="0 0 32 32" enable-background="new 0 0 32 32" xml:space="preserve">
<g>
	<path fill="#096CAE" d="M18.4,32c-0.1,0-0.2,0-0.3-0.1l-3.5-2.8l-4.1,2c-0.1,0.1-0.2,0.1-0.4,0C10,31,9.9,31,9.9,30.8l-1.7-4.2
		l-4.5-0.3c-0.1,0-0.2-0.1-0.3-0.2c-0.1-0.1-0.1-0.2-0.1-0.3L4,21.3l-3.8-2.5C0.1,18.7,0,18.6,0,18.5c0-0.1,0-0.2,0.1-0.3l2.8-3.6
		l-2-4.1c-0.1-0.1-0.1-0.2,0-0.4C1,10,1,9.9,1.2,9.9l4.2-1.7l0.3-4.5c0-0.1,0.1-0.2,0.2-0.3C6,3.3,6.1,3.3,6.2,3.3L10.7,4l2.5-3.8
		C13.3,0.1,13.4,0,13.5,0c0.1,0,0.2,0,0.3,0.1l3.5,2.8l4.1-2c0.1-0.1,0.2-0.1,0.4,0c0.1,0,0.2,0.1,0.3,0.3l1.2,3.2
		c0.1,0.2,0,0.5-0.3,0.6c-0.2,0.1-0.5,0-0.6-0.3l-1.1-2.7l-3.9,1.9c-0.2,0.1-0.3,0.1-0.5-0.1l-3.4-2.7l-2.4,3.6
		c-0.1,0.1-0.3,0.2-0.4,0.2L6.5,4.2L6.3,8.6C6.3,8.7,6.1,8.9,6,9l-4,1.6l1.9,3.9c0.1,0.2,0.1,0.3-0.1,0.5l-2.7,3.4l3.6,2.4
		c0.1,0.1,0.2,0.3,0.2,0.4l-0.7,4.3l4.3,0.3c0.2,0,0.3,0.1,0.4,0.3l1.6,4l3.9-1.9c0.2-0.1,0.3-0.1,0.5,0.1l3.4,2.7l2.4-3.6
		c0.1-0.1,0.3-0.2,0.4-0.2l4.3,0.7l0.3-4.3c0-0.2,0.1-0.3,0.3-0.4l4-1.6l-1.9-3.9c-0.1-0.2-0.1-0.3,0.1-0.5l2.7-3.4l-3.6-2.4
		c-0.1-0.1-0.2-0.3-0.2-0.4l0.7-4.3l-2.9-0.2c-0.2,0-0.4-0.2-0.4-0.5c0-0.2,0.2-0.4,0.5-0.4l3.4,0.2c0.1,0,0.2,0.1,0.3,0.2
		c0.1,0.1,0.1,0.2,0.1,0.3L28,10.7l3.8,2.5c0.1,0.1,0.2,0.2,0.2,0.3c0,0.1,0,0.2-0.1,0.3l-2.8,3.6l2,4.1c0.1,0.1,0.1,0.2,0,0.4
		c0,0.1-0.1,0.2-0.3,0.3l-4.2,1.7l-0.3,4.5c0,0.1-0.1,0.2-0.2,0.3c-0.1,0.1-0.2,0.1-0.3,0.1L21.3,28l-2.5,3.8
		C18.7,31.9,18.6,32,18.4,32C18.5,32,18.4,32,18.4,32z"/>
	<path fill="#096CAE" d="M10.7,24c-0.1,0-0.2,0-0.3-0.1c-0.2-0.1-0.3-0.4-0.1-0.6L20.9,8.2C21,8,21.3,7.9,21.5,8
		c0.2,0.1,0.3,0.4,0.1,0.6L11.1,23.8C11,24,10.9,24,10.7,24z"/>
	<path fill="#096CAE" d="M12.1,15.4C12.1,15.4,12.1,15.4,12.1,15.4c-0.9,0-1.7-0.5-2.3-1.3c-1-1.5-0.8-3.6,0.4-4.8
		c0.5-0.5,1.2-0.8,1.8-0.8c0.9,0,1.7,0.5,2.3,1.3c1,1.5,0.8,3.6-0.4,4.8C13.4,15.1,12.7,15.4,12.1,15.4z M12.1,9.4
		c-0.4,0-0.9,0.2-1.2,0.5c-0.9,0.9-1,2.6-0.3,3.7c0.4,0.6,0.9,0.9,1.5,0.9l0,0c0.4,0,0.9-0.2,1.2-0.5c0.9-0.9,1-2.6,0.3-3.7
		C13.2,9.7,12.7,9.4,12.1,9.4z"/>
	<path fill="#096CAE" d="M19.9,23.5C19.9,23.5,19.9,23.5,19.9,23.5c-0.9,0-1.7-0.5-2.3-1.3c-1-1.5-0.8-3.6,0.4-4.8
		c0.5-0.5,1.2-0.8,1.9-0.8c0.9,0,1.7,0.5,2.3,1.3c1,1.5,0.8,3.6-0.4,4.8C21.3,23.2,20.6,23.5,19.9,23.5z M19.9,17.5
		c-0.4,0-0.9,0.2-1.2,0.5c-0.9,0.9-1,2.6-0.3,3.7c0.4,0.6,0.9,0.9,1.5,0.9c0,0,0,0,0,0c0.4,0,0.9-0.2,1.2-0.5c0.9-0.9,1-2.6,0.3-3.7
		C21.1,17.8,20.5,17.5,19.9,17.5z"/>
</g>
</svg>
