<?xml version="1.0" encoding="utf-8"?>
<!-- Generator: Adobe Illustrator 18.1.1, SVG Export Plug-In . SVG Version: 6.00 Build 0)  -->
<!DOCTYPE svg PUBLIC "-//W3C//DTD SVG 1.1//EN" "http://www.w3.org/Graphics/SVG/1.1/DTD/svg11.dtd">
<svg version="1.1" id="Layer_1" xmlns="http://www.w3.org/2000/svg" xmlns:xlink="http://www.w3.org/1999/xlink" x="0px" y="0px"
	 viewBox="0 0 48 48" enable-background="new 0 0 48 48" xml:space="preserve">
<g>
	<path fill="#2E6A9D" d="M24,48c-0.2,0-0.4-0.1-0.6-0.3L19.2,42l-6.5,2.8c-0.2,0.1-0.4,0.1-0.6,0c-0.2-0.1-0.3-0.3-0.4-0.5l-0.9-7
		l-7-0.9c-0.2,0-0.4-0.2-0.5-0.4c-0.1-0.2-0.1-0.4,0-0.6L6,28.8l-5.7-4.3C0.1,24.4,0,24.2,0,24c0-0.2,0.1-0.4,0.3-0.6L6,19.2
		l-2.8-6.5c-0.1-0.2-0.1-0.4,0-0.6c0.1-0.2,0.3-0.3,0.5-0.4l4.5-0.5c0.4,0,0.8,0.2,0.8,0.6c0,0.4-0.2,0.8-0.6,0.8L4.9,13l2.6,6.2
		c0.1,0.3,0,0.7-0.2,0.9l-5.4,4l5.4,4c0.3,0.2,0.4,0.6,0.2,0.9L4.9,35l6.6,0.8c0.3,0,0.6,0.3,0.6,0.6l0.8,6.6l6.2-2.6
		c0.3-0.1,0.7,0,0.9,0.2l4,5.4l4-5.4c0.2-0.3,0.6-0.4,0.9-0.2l6.2,2.6l0.8-6.6c0-0.3,0.3-0.6,0.6-0.6l6.6-0.8l-2.6-6.2
		c-0.1-0.3,0-0.7,0.2-0.9l5.4-4l-5.4-4c-0.3-0.2-0.4-0.6-0.2-0.9l2.6-6.2l-6.6-0.8c-0.3,0-0.6-0.3-0.6-0.6L35,4.9l-6.2,2.6
		c-0.3,0.1-0.7,0-0.9-0.2l-4-5.4l-4,5.4c-0.2,0.3-0.6,0.4-0.9,0.2L13,4.9l-0.4,3.5c0,0.4-0.4,0.7-0.8,0.6c-0.4,0-0.7-0.4-0.6-0.8
		l0.5-4.4c0-0.2,0.2-0.4,0.4-0.5c0.2-0.1,0.4-0.1,0.6,0L19.2,6l4.3-5.7C23.6,0.1,23.8,0,24,0c0.2,0,0.4,0.1,0.6,0.3L28.8,6l6.5-2.8
		c0.2-0.1,0.4-0.1,0.6,0c0.2,0.1,0.3,0.3,0.4,0.5l0.9,7l7,0.9c0.2,0,0.4,0.2,0.5,0.4c0.1,0.2,0.1,0.4,0,0.6L42,19.2l5.7,4.3
		c0.2,0.1,0.3,0.3,0.3,0.6c0,0.2-0.1,0.4-0.3,0.6L42,28.8l2.8,6.5c0.1,0.2,0.1,0.4,0,0.6c-0.1,0.2-0.3,0.3-0.5,0.4l-7,0.9l-0.9,7
		c0,0.2-0.2,0.4-0.4,0.5c-0.2,0.1-0.4,0.1-0.6,0L28.8,42l-4.3,5.7C24.4,47.9,24.2,48,24,48z"/>
</g>
<g>
	<path fill="#2E6A9D" d="M23.7,35.5c-1.1,0-2-0.9-2-2s0.9-2,2-2c1.1,0,2,0.9,2,2S24.8,35.5,23.7,35.5z M23.7,33.3
		c-0.1,0-0.2,0.1-0.2,0.2c0,0.1,0.1,0.2,0.2,0.2c0.1,0,0.2-0.1,0.2-0.2C23.9,33.4,23.8,33.3,23.7,33.3z"/>
</g>
<g>
	<path fill="#2E6A9D" d="M23.7,29.4c-0.6,0-1.1-0.5-1.1-1.1c0-3.4,2.3-5,4.1-6.3c1.8-1.3,2.9-2.2,2.9-3.9c0-1.3-1.1-3.7-5.1-3.7
		c-3.9,0-5.2,3.9-5.3,4c-0.2,0.6-0.8,0.9-1.4,0.7c-0.6-0.2-0.9-0.8-0.7-1.4c0.6-1.9,2.9-5.6,7.4-5.6c5.3,0,7.2,3.5,7.2,5.9
		c0,3-2,4.4-3.9,5.7c-1.7,1.2-3.2,2.3-3.2,4.5C24.8,28.9,24.3,29.4,23.7,29.4z"/>
</g>
</svg>
