<?xml version="1.0" encoding="utf-8"?>
<!-- Generator: Adobe Illustrator 18.1.1, SVG Export Plug-In . SVG Version: 6.00 Build 0)  -->
<!DOCTYPE svg PUBLIC "-//W3C//DTD SVG 1.1//EN" "http://www.w3.org/Graphics/SVG/1.1/DTD/svg11.dtd">
<svg version="1.1" id="Layer_1" xmlns="http://www.w3.org/2000/svg" xmlns:xlink="http://www.w3.org/1999/xlink" x="0px" y="0px"
	 viewBox="0 0 31 31" enable-background="new 0 0 31 31" xml:space="preserve">
<path fill="#096CAE" d="M30.4,23.6c-0.9-1.4-4.1-2.3-7.2-3.6c-3.1-1.3-3.8-1.7-3.8-1.7l0-2.9c0,0,1.2-0.9,1.5-3.6
	c0.7,0.2,1.5-1.1,1.5-1.7c0-0.6-0.1-2.4-1-2.2c0.2-1.3,0.3-2.5,0.2-3.2C21.5,2.5,19.1,0,15.5,0c-3.6,0-6,2.5-6.2,4.8
	C9.3,5.4,9.4,6.6,9.6,7.9c-0.9-0.2-1,1.6-1,2.2c0,0.7,0.8,1.9,1.5,1.7c0.4,2.7,1.5,3.6,1.5,3.6l0,2.9c0,0-0.7,0.4-3.8,1.7
	c-3.1,1.3-6.2,2.1-7.2,3.6C-0.2,24.9,0,26.4,0,26.4S7.7,31,15.3,31c7.8,0,15.7-4.6,15.7-4.6S31.2,24.9,30.4,23.6z"/>
</svg>
